<svg width="98" height="99" viewBox="0 0 98 99" fill="none" xmlns="http://www.w3.org/2000/svg">
<path d="M28.304 31.9417C41.1551 1.60837 72.9522 28.7366 59.9811 38.804C54.6314 42.9552 50.5751 38.9771 47.3812 33.912C45.2923 30.6008 42.4584 27.6469 38.7203 27.2869C34.3598 26.8683 31.4435 29.4218 28.304 31.9417Z" stroke="#003B4A" stroke-width="3" stroke-linecap="round" stroke-linejoin="round"/>
<path d="M59.4411 22.4283C92.2595 25.2762 76.2856 63.9007 62.702 54.6747C57.1011 50.871 59.6322 45.7835 63.461 41.1803C65.9657 38.1706 67.8982 34.5622 67.0848 30.8966C66.1359 26.6199 62.8094 24.6343 59.4411 22.4283Z" stroke="#003B4A" stroke-width="3" stroke-linecap="round" stroke-linejoin="round"/>
<path d="M78.1094 49.1003C85.5424 81.1932 43.8733 77.9365 48.4486 62.1677C50.3351 55.6654 55.9555 56.4998 61.5188 58.7198C65.1536 60.171 69.182 60.8938 72.4164 58.9877C76.1922 56.7635 77.0517 52.9849 78.1094 49.1003Z" stroke="#003B4A" stroke-width="3" stroke-linecap="round" stroke-linejoin="round"/>
<path d="M58.5104 75.0983C30.2881 92.0853 20.5068 51.4473 36.9188 50.9282C43.6862 50.7133 44.6295 56.3156 44.236 62.2919C43.9793 66.1988 44.536 70.2537 47.3476 72.7402C50.6309 75.6425 54.4904 75.2937 58.5104 75.0983Z" stroke="#003B4A" stroke-width="3" stroke-linecap="round" stroke-linejoin="round"/>
<path d="M27.7305 64.4923C2.85288 42.898 38.4788 21.0413 44.0448 36.4878C46.3402 42.8575 41.303 45.4863 35.4983 46.9598C31.703 47.9226 28.0193 49.7045 26.5221 53.1482C24.7765 57.1668 26.303 60.7291 27.7305 64.4923Z" stroke="#003B4A" stroke-width="3" stroke-linecap="round" stroke-linejoin="round"/>
</svg>
