<svg width="98" height="99" viewBox="0 0 98 99" fill="none" xmlns="http://www.w3.org/2000/svg">
<path d="M54.625 71.5908L44.1484 55.5614C44.0661 55.428 43.952 55.318 43.8167 55.2418C43.6815 55.1656 43.5295 55.1256 43.375 55.1256C43.2205 55.1256 43.0685 55.1656 42.9333 55.2418C42.798 55.318 42.6839 55.428 42.6016 55.5614L37.7031 63.0737C37.616 63.2057 37.498 63.3135 37.3598 63.3872C37.2216 63.4609 37.0675 63.4983 36.9116 63.4959C36.7557 63.4935 36.6028 63.4515 36.4668 63.3736C36.3308 63.2957 36.216 63.1844 36.1328 63.0498L33.8594 59.4372C33.7714 59.304 33.6528 59.1948 33.5138 59.1194C33.3749 59.0439 33.2199 59.0045 33.0625 59.0045C32.9051 59.0045 32.7501 59.0439 32.6112 59.1194C32.4722 59.1948 32.3536 59.304 32.2656 59.4372L24.625 71.5908H54.625Z" stroke="black" stroke-width="3" stroke-linecap="round" stroke-linejoin="round"/>
<path d="M54.625 25.6558V39.0535H67.75" stroke="black" stroke-width="3" stroke-linecap="round" stroke-linejoin="round"/>
<path d="M64 71.5908H65.875C66.3723 71.5908 66.8492 71.3892 67.2008 71.0302C67.5525 70.6713 67.75 70.1845 67.75 69.6769V39.0535L54.625 25.6558H32.125C31.6277 25.6558 31.1508 25.8575 30.7992 26.2164C30.4475 26.5753 30.25 27.0622 30.25 27.5698V50.5373" stroke="black" stroke-width="3" stroke-linecap="round" stroke-linejoin="round"/>
</svg>
