<svg width="544" height="214" viewBox="0 0 544 214" fill="none" xmlns="http://www.w3.org/2000/svg">
<g filter="url(#filter0_d_465_619)">
<rect x="16.7212" y="8" width="511.279" height="182" rx="16" fill="#BCDEFB"/>
</g>
<defs>
<filter id="filter0_d_465_619" x="0.721176" y="0" width="543.279" height="214" filterUnits="userSpaceOnUse" color-interpolation-filters="sRGB">
<feFlood flood-opacity="0" result="BackgroundImageFix"/>
<feColorMatrix in="SourceAlpha" type="matrix" values="0 0 0 0 0 0 0 0 0 0 0 0 0 0 0 0 0 0 127 0" result="hardAlpha"/>
<feOffset dy="8"/>
<feGaussianBlur stdDeviation="8"/>
<feComposite in2="hardAlpha" operator="out"/>
<feColorMatrix type="matrix" values="0 0 0 0 0 0 0 0 0 0 0 0 0 0 0 0 0 0 0.08 0"/>
<feBlend mode="normal" in2="BackgroundImageFix" result="effect1_dropShadow_465_619"/>
<feBlend mode="normal" in="SourceGraphic" in2="effect1_dropShadow_465_619" result="shape"/>
</filter>
</defs>
</svg>
