<svg width="537" height="554" viewBox="0 0 537 554" fill="none" xmlns="http://www.w3.org/2000/svg">
<g filter="url(#filter0_d_413_2992)">
<path fill-rule="evenodd" clip-rule="evenodd" d="M379.543 21C379.543 13.8203 373.723 8 366.543 8H29C21.8203 8 16 13.8203 16 21V130.622C16 137.802 21.8203 143.622 29 143.622H114.135C121.315 143.622 127.135 149.442 127.135 156.622V358.543C127.135 365.722 121.315 371.543 114.135 371.543H29C21.8203 371.543 16 377.363 16 384.543V516.769C16 523.948 21.8203 529.769 29 529.769H430.587C437.766 529.769 443.587 523.948 443.587 516.769V454.238C443.587 447.058 449.407 441.238 456.587 441.238H507.816C514.996 441.238 520.816 435.417 520.816 428.238V156.622C520.816 149.442 514.996 143.622 507.816 143.622H392.543C385.363 143.622 379.543 137.802 379.543 130.622V21Z" fill="url(#paint0_linear_413_2992)" shape-rendering="crispEdges"/>
</g>
<defs>
<filter id="filter0_d_413_2992" x="0" y="0" width="536.816" height="553.769" filterUnits="userSpaceOnUse" color-interpolation-filters="sRGB">
<feFlood flood-opacity="0" result="BackgroundImageFix"/>
<feColorMatrix in="SourceAlpha" type="matrix" values="0 0 0 0 0 0 0 0 0 0 0 0 0 0 0 0 0 0 127 0" result="hardAlpha"/>
<feOffset dy="8"/>
<feGaussianBlur stdDeviation="8"/>
<feComposite in2="hardAlpha" operator="out"/>
<feColorMatrix type="matrix" values="0 0 0 0 0 0 0 0 0 0 0 0 0 0 0 0 0 0 0.08 0"/>
<feBlend mode="normal" in2="BackgroundImageFix" result="effect1_dropShadow_413_2992"/>
<feBlend mode="normal" in="SourceGraphic" in2="effect1_dropShadow_413_2992" result="shape"/>
</filter>
<linearGradient id="paint0_linear_413_2992" x1="268.408" y1="8" x2="268.408" y2="529.769" gradientUnits="userSpaceOnUse">
<stop stop-color="#3E64FF" stop-opacity="0"/>
<stop offset="1" stop-color="#3E64FF"/>
</linearGradient>
</defs>
</svg>
