<svg width="167" height="122" viewBox="0 0 167 122" fill="none" xmlns="http://www.w3.org/2000/svg">
<g filter="url(#filter0_d_465_58)">
<rect x="12" y="6.5679" width="142.709" height="96.6173" rx="13" fill="#BCDEFB"/>
</g>
<defs>
<filter id="filter0_d_465_58" x="0" y="0.567902" width="166.709" height="120.617" filterUnits="userSpaceOnUse" color-interpolation-filters="sRGB">
<feFlood flood-opacity="0" result="BackgroundImageFix"/>
<feColorMatrix in="SourceAlpha" type="matrix" values="0 0 0 0 0 0 0 0 0 0 0 0 0 0 0 0 0 0 127 0" result="hardAlpha"/>
<feOffset dy="6"/>
<feGaussianBlur stdDeviation="6"/>
<feComposite in2="hardAlpha" operator="out"/>
<feColorMatrix type="matrix" values="0 0 0 0 0 0 0 0 0 0 0 0 0 0 0 0 0 0 0.1 0"/>
<feBlend mode="normal" in2="BackgroundImageFix" result="effect1_dropShadow_465_58"/>
<feBlend mode="normal" in="SourceGraphic" in2="effect1_dropShadow_465_58" result="shape"/>
</filter>
</defs>
</svg>
